{
    "version": "3.4.0",
    "description": "Build tools for bazel",
    "suggest": {
        "bazel": [ "main/bazel" ]
    },
    "architecture": {
        "64bit": {
            "url": [
                "https://github.com/bazelbuild/buildtools/releases/download/3.4.0/buildifier.exe",
                "https://github.com/bazelbuild/buildtools/releases/download/3.4.0/buildozer.exe",
                "https://github.com/bazelbuild/buildtools/releases/download/3.4.0/unused_deps.exe"
            ],
            "hash": [
                "39cd8e5e2f27cb30c41e9879ffc76f25bd051063b6c48ac95ec196de65e1c4c9",
                "df1d14d5f2c42caf7ab0eb57d3c6bb6e9aad83a9c8a07a1c1ecccf9c0cce4665",
                "0644bc56ef6fe5a71027a5cb315837bdcb6ddd0cb728fa6e0f54e9955f3f94bf"
            ]
        }
    },
    "bin": [
        "buildifier.exe",
        "buildozer.exe",
        "unused_deps.exe"
    ],
    "checkver": {
        "github": "https://github.com/bazelbuild/buildtools"
    },
    "autoupdate": {
        "architecture": {
            "64bit": {
                "url": [
                    "https://github.com/bazelbuild/buildtools/releases/download/$version/buildifier.exe",
                    "https://github.com/bazelbuild/buildtools/releases/download/$version/buildozer.exe",
                    "https://github.com/bazelbuild/buildtools/releases/download/$version/unused_deps.exe"
                ]
            }
        }
    }
}
